{
  "PackageDirectories": [
    {
      "Path": "force-app",
      "Default": true
    }
    {
  "name": "sfdx-pipelines",
  "version": "1.0.0",
  "description": "Example SFDX project with bitbucket pipelines",
  "main": "index.js",
  "scripts": {
    "push": "sfdx force:source:push",
    "push:watch": "watch 'sfdx force:source:push || true' ./force-app/main/default",
    "pull": "sfdx force:source:pull"
  },
   "repository": {
    "type": "git",
    "url": "git+ssh://Neetu_devops@bitbucket.org/Neetu_devops/sfdx_neetu2.git"
  },
  "keywords": [
    "sfdx"
  ],
  "Namespace": "",
  "SfdcLoginUrl": "https://login.salesforce.com",
  "SourceApiVersion": "51.0"
}
